…
cv_df
```

    ## # A tibble: 100 x 9
    ##    train                   test     .id   lm_1  lm_2  lm_3  rmse_1 rmse_2 rmse_3
    ##    <list>                  <list>   <chr> <lis> <lis> <lis>  <dbl>  <dbl>  <dbl>
    ##  1 <resample [3,473 x 18]> <resamp~ 001   <lm>  <lm>  <lm>    330.   336.   286.
    ##  2 <resample [3,473 x 18]> <resamp~ 002   <lm>  <lm>  <lm>    332.   333.   286.
    ##  3 <resample [3,473 x 18]> <resamp~ 003   <lm>  <lm>  <lm>    361.   362.   301.
    ##  4 <resample [3,473 x 18]> <resamp~ 004   <lm>  <lm>  <lm>    319.   316.   275.
    ##  5 <resample [3,473 x 18]> <resamp~ 005   <lm>  <lm>  <lm>    320.   324.   283.
    ##  6 <resample [3,473 x 18]> <resamp~ 006   <lm>  <lm>  <lm>    335.   339.   295.
    ##  7 <resample [3,473 x 18]> <resamp~ 007   <lm>  <lm>  <lm>    324.   324.   281.
    ##  8 <resample [3,473 x 18]> <resamp~ 008   <lm>  <lm>  <lm>    325.   336.   296.
    ##  9 <resample [3,473 x 18]> <resamp~ 009   <lm>  <lm>  <lm>    312.   315.   275.
    ## 10 <resample [3,473 x 18]> <resamp~ 010   <lm>  <lm>  <lm>    320.   331.   284.
    ## # ... with 90 more rows
…
